send_message(send_message(go,agent1))
send_message(send_message(go,agent1))
send_message(send_message(go,agent1))
send_message(send_message(go,agent1))
send_message(send_message(go,agent1))
send_message(send_message(go,agent1))
send_message(send_message(go,agent1))
send_message(send_message(go,agent1))
send_message(send_message(go,agent1))
send_message(send_message(go,agent1))
send_message(send_message(go,agent1))
send_message(send_message(go,agent1))
send_message(send_message(go,agent1))
send_message(send_message(go,agent1))
send_message(send_message(go,agent1))
send_message(send_message(go,agent1))
send_message(send_message(go,agent1))
send_message(send_message(go,agent1))
send_message(send_message(go,agent1))
send_message(send_message(go,agent1))
send_message(send_message(go,agent1))
send_message(send_message(go,agent1))
send_message(send_message(go,agent1))
send_message(send_message(go,agent1))
send_message(send_message(go,agent1))
send_message(send_message(go,agent1))
send_message(send_message(go,agent1))
send_message(send_message(go,agent1))
send_message(send_message(go,agent1))
send_message(send_message(go,agent1))
send_message(send_message(go,agent1))
send_message(send_message(go,agent1))
send_message(send_message(go,agent1))
send_message(send_message(go,agent1))
send_message(send_message(go,agent1))
send_message(send_message(go,agent1))
send_message(send_message(go,agent1))
send_message(send_message(go,agent1))
send_message(send_message(go,agent1))
send_message(send_message(go,agent1))
send_message(send_message(go,agent1))
send_message(send_message(go,agent1))
send_message(send_message(go,agent1))
send_message(send_message(go,agent1))
send_message(send_message(go,agent1))
send_message(send_message(go,agent1))
send_message(send_message(go,agent1))
send_message(send_message(go,agent1))
send_message(send_message(go,agent1))
send_message(send_message(go,agent1))
send_message(send_message(go,agent1))
send_message(send_message(go,agent1))
send_message(send_message(go,agent1))
send_message(send_message(go,agent1))
send_message(send_message(go,agent1))
send_message(send_message(go,agent1))
send_message(send_message(go,agent1))
send_message(send_message(go,agent1))
send_message(send_message(go,agent1))
send_message(send_message(go,agent1))
send_message(send_message(go,agent1))
send_message(send_message(go,agent1))
send_message(send_message(go,agent1))
send_message(send_message(go,agent1))
send_message(send_message(go,agent1))
send_message(send_message(go,agent1))
send_message(send_message(go,agent1))
send_message(send_message(go,agent1))
send_message(send_message(go,agent1))
send_message(send_message(go,agent1))
send_message(send_message(go,agent1))
send_message(send_message(go,agent1))
send_message(send_message(go,agent1))
send_message(send_message(go,agent1))
send_message(send_message(go,agent1))
send_message(send_message(go,agent1))
send_message(send_message(go,agent1))
send_message(send_message(go,agent1))
send_message(send_message(go,agent1))
send_message(send_message(go,agent1))
send_message(send_message(go,agent1))
send_message(send_message(go,agent1))
send_message(send_message(go,agent1))
send_message(send_message(go,agent1))
send_message(send_message(go,agent1))
send_message(send_message(go,agent1))
send_message(send_message(go,agent1))
send_message(send_message(go,agent1))
send_message(send_message(go,agent1))
send_message(send_message(go,agent1))
send_message(send_message(go,agent1))
send_message(send_message(go,agent1))
send_message(send_message(go,agent1))
send_message(send_message(go,agent1))
send_message(send_message(go,agent1))
send_message(send_message(go,agent1))
send_message(send_message(go,agent1))
send_message(send_message(go,agent1))
send_message(send_message(go,agent1))
send_message(send_message(go,agent1))
send_message(send_message(go,agent1))
send_message(send_message(go,agent1))
send_message(send_message(go,agent1))
send_message(send_message(go,agent1))
send_message(send_message(go,agent1))
send_message(send_message(go,agent1))
send_message(send_message(go,agent1))
send_message(send_message(go,agent1))
send_message(send_message(go,agent1))
send_message(send_message(go,agent1))
send_message(send_message(go,agent1))
send_message(send_message(go,agent1))
send_message(send_message(go,agent1))
send_message(send_message(go,agent1))
send_message(send_message(go,agent1))
send_message(send_message(go,agent1))
send_message(send_message(go,agent1))
send_message(send_message(go,agent1))
send_message(send_message(go,agent1))
send_message(send_message(go,agent1))
send_message(send_message(go,agent1))
send_message(send_message(go,agent1))
send_message(send_message(go,agent1))
send_message(send_message(go,agent1))
send_message(send_message(go,agent1))
send_message(send_message(go,agent1))
send_message(send_message(go,agent1))
send_message(send_message(go,agent1))
send_message(send_message(go,agent1))
send_message(send_message(go,agent1))
send_message(send_message(go,agent1))
send_message(send_message(go,agent1))
send_message(send_message(go,agent1))
send_message(send_message(go,agent1))
send_message(send_message(go,agent1))
send_message(send_message(go,agent1))
send_message(send_message(go,agent1))
send_message(send_message(go,agent1))
send_message(send_message(go,agent1))
send_message(send_message(go,agent1))
send_message(send_message(go,agent1))
send_message(send_message(go,agent1))
send_message(send_message(go,agent1))
send_message(send_message(go,agent1))
send_message(send_message(go,agent1))
send_message(send_message(go,agent1))
send_message(send_message(go,agent1))
send_message(send_message(go,agent1))
send_message(send_message(go,agent1))
send_message(send_message(go,agent1))
send_message(send_message(go,agent1))
send_message(send_message(go,agent1))
send_message(send_message(go,agent1))
send_message(send_message(go,agent1))
send_message(send_message(go,agent1))
send_message(send_message(go,agent1))
send_message(send_message(go,agent1))
send_message(send_message(go,agent1))
send_message(send_message(go,agent1))
send_message(send_message(go,agent1))
send_message(send_message(go,agent1))
send_message(send_message(go,agent1))
send_message(send_message(go,agent1))
send_message(send_message(go,agent1))
send_message(send_message(go,agent1))
send_message(send_message(go,agent1))
send_message(send_message(go,agent1))
send_message(send_message(go,agent1))
send_message(send_message(go,agent1))
send_message(send_message(go,agent1))
send_message(send_message(go,agent1))
send_message(send_message(go,agent1))
send_message(send_message(go,agent1))
send_message(send_message(go,agent1))
send_message(send_message(go,agent1))
send_message(send_message(go,agent1))
send_message(send_message(go,agent1))
send_message(send_message(go,agent1))
send_message(send_message(go,agent1))
send_message(send_message(go,agent1))
send_message(send_message(go,agent1))
send_message(send_message(go,agent1))
send_message(send_message(go,agent1))
send_message(send_message(go,agent1))
send_message(send_message(go,agent1))
send_message(send_message(go,agent1))
send_message(send_message(go,agent1))
send_message(send_message(go,agent1))
send_message(send_message(go,agent1))
send_message(send_message(go,agent1))
send_message(send_message(go,agent1))
send_message(send_message(go,agent1))
send_message(send_message(go,agent1))
send_message(send_message(go,agent1))
send_message(send_message(go,agent1))
send_message(send_message(go,agent1))
send_message(send_message(go,agent1))
send_message(send_message(go,agent1))
send_message(send_message(go,agent1))
send_message(send_message(go,agent1))
send_message(send_message(go,agent1))
send_message(send_message(go,agent1))
send_message(send_message(go,agent1))
send_message(send_message(go,agent1))
send_message(send_message(go,agent1))
send_message(send_message(go,agent1))
send_message(send_message(go,agent1))
send_message(send_message(go,agent1))
send_message(send_message(go,agent1))
send_message(send_message(go,agent1))
send_message(send_message(go,agent1))
send_message(send_message(go,agent1))
send_message(send_message(go,agent1))
send_message(send_message(go,agent1))
send_message(send_message(go,agent1))
send_message(send_message(go,agent1))
send_message(send_message(go,agent1))
send_message(send_message(go,agent1))
send_message(send_message(go,agent1))
send_message(send_message(go,agent1))
send_message(send_message(go,agent1))
send_message(send_message(go,agent1))
send_message(send_message(go,agent1))
send_message(send_message(go,agent1))
send_message(send_message(go,agent1))
send_message(send_message(go,agent1))
send_message(send_message(go,agent1))
send_message(send_message(go,agent1))
send_message(send_message(go,agent1))
send_message(send_message(go,agent1))
send_message(send_message(go,agent1))
send_message(send_message(go,agent1))
send_message(send_message(go,agent1))
send_message(send_message(go,agent1))
send_message(send_message(go,agent1))
send_message(send_message(go,agent1))
send_message(send_message(go,agent1))
send_message(send_message(go,agent1))
send_message(send_message(go,agent1))
send_message(send_message(go,agent1))
send_message(send_message(go,agent1))
send_message(send_message(go,agent1))
send_message(send_message(go,agent1))
send_message(send_message(go,agent1))
send_message(send_message(go,agent1))
send_message(send_message(go,agent1))
send_message(send_message(go,agent1))
send_message(send_message(go,agent1))
send_message(send_message(go,agent1))
send_message(send_message(go,agent1))
send_message(send_message(go,agent1))
send_message(send_message(go,agent1))
send_message(send_message(go,agent1))
send_message(send_message(go,agent1))
send_message(send_message(go,agent1))
send_message(send_message(go,agent1))
send_message(send_message(go,agent1))
send_message(send_message(go,agent1))
send_message(send_message(go,agent1))
send_message(send_message(go,agent1))
send_message(send_message(go,agent1))
send_message(send_message(go,agent1))
send_message(send_message(go,agent1))
send_message(send_message(go,agent1))
send_message(send_message(go,agent1))
send_message(send_message(go,agent1))
send_message(send_message(go,agent1))
send_message(send_message(go,agent1))
send_message(send_message(go,agent1))
send_message(send_message(go,agent1))
send_message(send_message(go,agent1))
send_message(send_message(go,agent1))
send_message(send_message(go,agent1))
send_message(send_message(go,agent1))
send_message(send_message(go,agent1))
send_message(send_message(go,agent1))
send_message(send_message(go,agent1))
send_message(send_message(go,agent1))
send_message(send_message(go,agent1))
send_message(send_message(go,agent1))
send_message(send_message(go,agent1))
send_message(send_message(go,agent1))
send_message(send_message(go,agent1))
send_message(send_message(go,agent1))
send_message(send_message(go,agent1))
send_message(send_message(go,agent1))
send_message(send_message(go,agent1))
send_message(send_message(go,agent1))
send_message(send_message(go,agent1))
send_message(send_message(go,agent1))
send_message(send_message(go,agent1))
send_message(send_message(go,agent1))
send_message(send_message(go,agent1))
send_message(send_message(go,agent1))
send_message(send_message(go,agent1))
send_message(send_message(go,agent1))
send_message(send_message(go,agent1))
send_message(send_message(go,agent1))
send_message(send_message(go,agent1))
send_message(send_message(go,agent1))
send_message(send_message(go,agent1))
send_message(send_message(go,agent1))
send_message(send_message(go,agent1))
send_message(send_message(go,agent1))
send_message(send_message(go,agent1))
send_message(send_message(go,agent1))
send_message(send_message(go,agent1))
send_message(send_message(go,agent1))
send_message(send_message(go,agent1))
send_message(send_message(go,agent1))
send_message(send_message(go,agent1))
send_message(send_message(go,agent1))
send_message(send_message(go,agent1))
send_message(send_message(go,agent1))
send_message(send_message(go,agent1))
send_message(send_message(go,agent1))
send_message(send_message(go,agent1))
send_message(send_message(go,agent1))
send_message(send_message(go,agent1))
send_message(send_message(go,agent1))
send_message(send_message(go,agent1))
send_message(send_message(go,agent1))
send_message(send_message(go,agent1))
send_message(send_message(go,agent1))
send_message(send_message(go,agent1))
send_message(send_message(go,agent1))
send_message(send_message(go,agent1))
send_message(send_message(go,agent1))
send_message(send_message(go,agent1))
send_message(send_message(go,agent1))
send_message(send_message(go,agent1))
send_message(send_message(go,agent1))
send_message(send_message(go,agent1))
send_message(send_message(go,agent1))
send_message(send_message(go,agent1))
send_message(send_message(go,agent1))
send_message(send_message(go,agent1))
send_message(send_message(go,agent1))
send_message(send_message(go,agent1))
send_message(send_message(go,agent1))
send_message(send_message(go,agent1))
send_message(send_message(go,agent1))
send_message(send_message(go,agent1))
send_message(send_message(go,agent1))
send_message(send_message(go,agent1))
send_message(send_message(go,agent1))
send_message(send_message(go,agent1))
send_message(send_message(go,agent1))
send_message(send_message(go,agent1))
send_message(send_message(go,agent1))
send_message(send_message(go,agent1))
send_message(send_message(go,agent1))
send_message(send_message(go,agent1))
send_message(send_message(go,agent1))
send_message(send_message(go,agent1))
send_message(send_message(go,agent1))
send_message(send_message(go,agent1))
send_message(send_message(go,agent1))
send_message(send_message(go,agent1))
send_message(send_message(go,agent1))
send_message(send_message(go,agent1))
send_message(send_message(go,agent1))
send_message(send_message(go,agent1))
send_message(send_message(go,agent1))
send_message(send_message(go,agent1))
send_message(send_message(go,agent1))
send_message(send_message(go,agent1))
send_message(send_message(go,agent1))
send_message(send_message(go,agent1))
send_message(send_message(go,agent1))
send_message(send_message(go,agent1))
send_message(send_message(go,agent1))
send_message(send_message(go,agent1))
send_message(send_message(go,agent1))
send_message(send_message(go,agent1))
send_message(send_message(go,agent1))
send_message(send_message(go,agent1))
send_message(send_message(go,agent1))
send_message(send_message(go,agent1))
send_message(send_message(go,agent1))
send_message(send_message(go,agent1))
send_message(send_message(go,agent1))
send_message(send_message(go,agent1))
send_message(send_message(go,agent1))
send_message(send_message(go,agent1))
send_message(send_message(go,agent1))
send_message(send_message(go,agent1))
send_message(send_message(go,agent1))
send_message(send_message(go,agent1))
send_message(send_message(go,agent1))
send_message(send_message(go,agent1))
send_message(send_message(go,agent1))
send_message(send_message(go,agent1))
send_message(send_message(go,agent1))
send_message(send_message(go,agent1))
send_message(send_message(go,agent1))
send_message(send_message(go,agent1))
send_message(send_message(go,agent1))
send_message(send_message(go,agent1))
send_message(send_message(go,agent1))
send_message(send_message(go,agent1))
send_message(send_message(go,agent1))
send_message(send_message(go,agent1))
send_message(send_message(go,agent1))
send_message(send_message(go,agent1))
send_message(send_message(go,agent1))
send_message(send_message(go,agent1))
send_message(send_message(go,agent1))
send_message(send_message(go,agent1))
send_message(send_message(go,agent1))
send_message(send_message(go,agent1))
send_message(send_message(go,agent1))
send_message(send_message(go,agent1))
send_message(send_message(go,agent1))
send_message(send_message(go,agent1))
send_message(send_message(go,agent1))
send_message(send_message(go,agent1))
send_message(send_message(go,agent1))
send_message(send_message(go,agent1))
send_message(send_message(go,agent1))
send_message(send_message(go,agent1))
send_message(send_message(go,agent1))
send_message(send_message(go,agent1))
send_message(send_message(go,agent1))
send_message(send_message(go,agent1))
send_message(send_message(go,agent1))
send_message(send_message(go,agent1))
send_message(send_message(go,agent1))
send_message(send_message(go,agent1))
send_message(send_message(go,agent1))
send_message(send_message(go,agent1))
send_message(send_message(go,agent1))
send_message(send_message(go,agent1))
send_message(send_message(go,agent1))
send_message(send_message(go,agent1))
send_message(send_message(go,agent1))
send_message(send_message(go,agent1))
send_message(send_message(go,agent1))
send_message(send_message(go,agent1))
send_message(send_message(go,agent1))
send_message(send_message(go,agent1))
send_message(send_message(go,agent1))
send_message(send_message(go,agent1))
send_message(send_message(go,agent1))
send_message(send_message(go,agent1))
send_message(send_message(go,agent1))
send_message(send_message(go,agent1))
send_message(send_message(go,agent1))
send_message(send_message(go,agent1))
send_message(send_message(go,agent1))
send_message(send_message(go,agent1))
send_message(send_message(go,agent1))
send_message(send_message(go,agent1))
send_message(send_message(go,agent1))
send_message(send_message(go,agent1))
send_message(send_message(go,agent1))
send_message(send_message(go,agent1))
send_message(send_message(go,agent1))
send_message(send_message(go,agent1))
send_message(send_message(go,agent1))
send_message(send_message(go,agent1))
send_message(send_message(go,agent1))
send_message(send_message(go,agent1))
send_message(send_message(go,agent1))
send_message(send_message(go,agent1))
send_message(send_message(go,agent1))
send_message(send_message(go,agent1))
send_message(send_message(go,agent1))
send_message(send_message(go,agent1))
send_message(send_message(go,agent1))
send_message(send_message(go,agent1))
send_message(send_message(go,agent1))
send_message(send_message(go,agent1))
send_message(send_message(go,agent1))
send_message(send_message(go,agent1))
send_message(send_message(go,agent1))
send_message(send_message(go,agent1))
send_message(send_message(go,agent1))
send_message(send_message(go,agent1))
send_message(send_message(go,agent1))
send_message(send_message(go,agent1))
send_message(send_message(go,agent1))
send_message(send_message(go,agent1))
send_message(send_message(go,agent1))
send_message(send_message(go,agent1))
send_message(send_message(go,agent1))
send_message(send_message(go,agent1))
send_message(send_message(go,agent1))
send_message(send_message(go,agent1))
send_message(send_message(go,agent1))
send_message(send_message(go,agent1))
send_message(send_message(go,agent1))
send_message(send_message(go,agent1))
send_message(send_message(go,agent1))
send_message(send_message(go,agent1))
send_message(send_message(go,agent1))
send_message(send_message(go,agent1))
send_message(send_message(go,agent1))
send_message(send_message(go,agent1))
send_message(send_message(go,agent1))
send_message(send_message(go,agent1))
send_message(send_message(go,agent1))
send_message(send_message(go,agent1))
send_message(send_message(go,agent1))
send_message(send_message(go,agent1))
send_message(send_message(go,agent1))
send_message(send_message(go,agent1))
send_message(send_message(go,agent1))
send_message(send_message(go,agent1))
send_message(send_message(go,agent1))
send_message(send_message(go,agent1))
send_message(send_message(go,agent1))
send_message(send_message(go,agent1))
send_message(send_message(go,agent1))
send_message(send_message(go,agent1))
send_message(send_message(go,agent1))
send_message(send_message(go,agent1))
send_message(send_message(go,agent1))
send_message(send_message(go,agent1))
send_message(send_message(go,agent1))
send_message(send_message(go,agent1))
send_message(send_message(go,agent1))
send_message(send_message(go,agent1))
send_message(send_message(go,agent1))
send_message(send_message(go,agent1))
send_message(send_message(go,agent1))
send_message(send_message(go,agent1))
send_message(send_message(go,agent1))
send_message(send_message(go,agent1))
send_message(send_message(go,agent1))
send_message(send_message(go,agent1))
send_message(send_message(go,agent1))
send_message(send_message(go,agent1))
send_message(send_message(go,agent1))
send_message(send_message(go,agent1))
send_message(send_message(go,agent1))
send_message(send_message(go,agent1))
send_message(send_message(go,agent1))
send_message(send_message(go,agent1))
send_message(send_message(go,agent1))
send_message(send_message(go,agent1))
send_message(send_message(go,agent1))
send_message(send_message(go,agent1))
send_message(send_message(go,agent1))
send_message(send_message(go,agent1))
send_message(send_message(go,agent1))
send_message(send_message(go,agent1))
send_message(send_message(go,agent1))
send_message(send_message(go,agent1))
send_message(send_message(go,agent1))
send_message(send_message(go,agent1))
send_message(send_message(go,agent1))
send_message(send_message(go,agent1))
send_message(send_message(go,agent1))
send_message(send_message(go,agent1))
send_message(send_message(go,agent1))
send_message(send_message(go,agent1))
send_message(send_message(go,agent1))
send_message(send_message(go,agent1))
send_message(send_message(go,agent1))
send_message(send_message(go,agent1))
send_message(send_message(go,agent1))
send_message(send_message(go,agent1))
send_message(send_message(go,agent1))
send_message(send_message(go,agent1))
send_message(send_message(go,agent1))
send_message(send_message(go,agent1))
send_message(send_message(go,agent1))
send_message(send_message(go,agent1))
send_message(send_message(go,agent1))
send_message(send_message(go,agent1))
send_message(send_message(go,agent1))
send_message(send_message(go,agent1))
send_message(send_message(go,agent1))
send_message(send_message(go,agent1))
send_message(send_message(go,agent1))
send_message(send_message(go,agent1))
send_message(send_message(go,agent1))
send_message(send_message(go,agent1))
send_message(send_message(go,agent1))
send_message(send_message(go,agent1))
send_message(send_message(go,agent1))
send_message(send_message(go,agent1))
send_message(send_message(go,agent1))
send_message(send_message(go,agent1))
send_message(send_message(go,agent1))
send_message(send_message(go,agent1))
send_message(send_message(go,agent1))
send_message(send_message(go,agent1))
send_message(send_message(go,agent1))
send_message(send_message(go,agent1))
send_message(send_message(go,agent1))
send_message(send_message(go,agent1))
send_message(send_message(go,agent1))
send_message(send_message(go,agent1))
send_message(send_message(go,agent1))
send_message(send_message(go,agent1))
send_message(send_message(go,agent1))
send_message(send_message(go,agent1))
send_message(send_message(go,agent1))
send_message(send_message(go,agent1))
send_message(send_message(go,agent1))
send_message(send_message(go,agent1))
send_message(send_message(go,agent1))
send_message(send_message(go,agent1))
send_message(send_message(go,agent1))
send_message(send_message(go,agent1))
send_message(send_message(go,agent1))
send_message(send_message(go,agent1))
send_message(send_message(go,agent1))
send_message(send_message(go,agent1))
send_message(send_message(go,agent1))
send_message(send_message(go,agent1))
send_message(send_message(go,agent1))
send_message(send_message(go,agent1))
send_message(send_message(go,agent1))
send_message(send_message(go,agent1))
send_message(send_message(go,agent1))
send_message(send_message(go,agent1))
send_message(send_message(go,agent1))
send_message(send_message(go,agent1))
send_message(send_message(go,agent1))
send_message(send_message(go,agent1))
send_message(send_message(go,agent1))
send_message(send_message(go,agent1))
send_message(send_message(go,agent1))
send_message(send_message(go,agent1))
send_message(send_message(go,agent1))
send_message(send_message(go,agent1))
send_message(send_message(go,agent1))
send_message(send_message(go,agent1))
send_message(send_message(go,agent1))
send_message(send_message(go,agent1))
send_message(send_message(go,agent1))
send_message(send_message(go,agent1))
send_message(send_message(go,agent1))
send_message(send_message(go,agent1))
send_message(send_message(go,agent1))
send_message(send_message(go,agent1))
send_message(send_message(go,agent1))
send_message(send_message(go,agent1))
send_message(send_message(go,agent1))
send_message(send_message(go,agent1))
send_message(send_message(go,agent1))
send_message(send_message(go,agent1))
send_message(send_message(go,agent1))
send_message(send_message(go,agent1))
send_message(send_message(go,agent1))
send_message(send_message(go,agent1))
send_message(send_message(go,agent1))
send_message(send_message(go,agent1))
send_message(send_message(go,agent1))
send_message(send_message(go,agent1))
send_message(send_message(go,agent1))
send_message(send_message(go,agent1))
send_message(send_message(go,agent1))
send_message(send_message(go,agent1))
send_message(send_message(go,agent1))
send_message(send_message(go,agent1))
send_message(send_message(go,agent1))
send_message(send_message(go,agent1))
send_message(send_message(go,agent1))
send_message(send_message(go,agent1))
send_message(send_message(go,agent1))
send_message(send_message(go,agent1))
send_message(send_message(go,agent1))
send_message(send_message(go,agent1))
send_message(send_message(go,agent1))
send_message(send_message(go,agent1))
send_message(send_message(go,agent1))
send_message(send_message(go,agent1))
send_message(send_message(go,agent1))
send_message(send_message(go,agent1))
send_message(send_message(go,agent1))
send_message(send_message(go,agent1))
send_message(send_message(go,agent1))
send_message(send_message(go,agent1))
send_message(send_message(go,agent1))
send_message(send_message(go,agent1))
send_message(send_message(go,agent1))
send_message(send_message(go,agent1))
send_message(send_message(go,agent1))
send_message(send_message(go,agent1))
send_message(send_message(go,agent1))
send_message(send_message(go,agent1))
send_message(send_message(go,agent1))
send_message(send_message(go,agent1))
send_message(send_message(go,agent1))
send_message(send_message(go,agent1))
send_message(send_message(go,agent1))
send_message(send_message(go,agent1))
send_message(send_message(go,agent1))
send_message(send_message(go,agent1))
send_message(send_message(go,agent1))
send_message(send_message(go,agent1))
send_message(send_message(go,agent1))
send_message(send_message(go,agent1))
send_message(send_message(go,agent1))
send_message(send_message(go,agent1))
send_message(send_message(go,agent1))
send_message(send_message(go,agent1))
send_message(send_message(go,agent1))
send_message(send_message(go,agent1))
send_message(send_message(go,agent1))
send_message(send_message(go,agent1))
send_message(send_message(go,agent1))
send_message(send_message(go,agent1))
send_message(send_message(go,agent1))
send_message(send_message(go,agent1))
send_message(send_message(go,agent1))
send_message(send_message(go,agent1))
send_message(send_message(go,agent1))
send_message(send_message(go,agent1))
send_message(send_message(go,agent1))
send_message(send_message(go,agent1))
send_message(send_message(go,agent1))
send_message(send_message(go,agent1))
send_message(send_message(go,agent1))
send_message(send_message(go,agent1))
send_message(send_message(go,agent1))
send_message(send_message(go,agent1))
send_message(send_message(go,agent1))
send_message(send_message(go,agent1))
send_message(send_message(go,agent1))
send_message(send_message(go,agent1))
send_message(send_message(go,agent1))
send_message(send_message(go,agent1))
send_message(send_message(go,agent1))
send_message(send_message(go,agent1))
send_message(send_message(go,agent1))
send_message(send_message(go,agent1))
send_message(send_message(go,agent1))
send_message(send_message(go,agent1))
send_message(send_message(go,agent1))
send_message(send_message(go,agent1))
send_message(send_message(go,agent1))
send_message(send_message(go,agent1))
send_message(send_message(go,agent1))
send_message(send_message(go,agent1))
send_message(send_message(go,agent1))
send_message(send_message(go,agent1))
send_message(send_message(go,agent1))
send_message(send_message(go,agent1))
send_message(send_message(go,agent1))
send_message(send_message(go,agent1))
send_message(send_message(go,agent1))
send_message(send_message(go,agent1))
send_message(send_message(go,agent1))
send_message(send_message(go,agent1))
send_message(send_message(go,agent1))
send_message(send_message(go,agent1))
send_message(send_message(go,agent1))
send_message(send_message(go,agent1))
send_message(send_message(go,agent1))
send_message(send_message(go,agent1))
send_message(send_message(go,agent1))
send_message(send_message(go,agent1))
send_message(send_message(go,agent1))
send_message(send_message(go,agent1))
send_message(send_message(go,agent1))
send_message(send_message(go,agent1))
send_message(send_message(go,agent1))
send_message(send_message(go,agent1))
send_message(send_message(go,agent1))
send_message(send_message(go,agent1))
send_message(send_message(go,agent1))
send_message(send_message(go,agent1))
send_message(send_message(go,agent1))
send_message(send_message(go,agent1))
send_message(send_message(go,agent1))
send_message(send_message(go,agent1))
send_message(send_message(go,agent1))
send_message(send_message(go,agent1))
send_message(send_message(go,agent1))
send_message(send_message(go,agent1))
send_message(send_message(go,agent1))
send_message(send_message(go,agent1))
send_message(send_message(go,agent1))
send_message(send_message(go,agent1))
send_message(send_message(go,agent1))
send_message(send_message(go,agent1))
send_message(send_message(go,agent1))
send_message(send_message(go,agent1))
send_message(send_message(go,agent1))
send_message(send_message(go,agent1))
send_message(send_message(go,agent1))
send_message(send_message(go,agent1))
send_message(send_message(go,agent1))
send_message(send_message(go,agent1))
send_message(send_message(go,agent1))
send_message(send_message(go,agent1))
send_message(send_message(go,agent1))
send_message(send_message(go,agent1))
send_message(send_message(go,agent1))
send_message(send_message(go,agent1))
send_message(send_message(go,agent1))
send_message(send_message(go,agent1))
send_message(send_message(go,agent1))
send_message(send_message(go,agent1))
send_message(send_message(go,agent1))
send_message(send_message(go,agent1))
send_message(send_message(go,agent1))
send_message(send_message(go,agent1))
send_message(send_message(go,agent1))
send_message(send_message(go,agent1))
send_message(send_message(go,agent1))
send_message(send_message(go,agent1))
send_message(send_message(go,agent1))
send_message(send_message(go,agent1))
send_message(send_message(go,agent1))
send_message(send_message(go,agent1))
send_message(send_message(go,agent1))
send_message(send_message(go,agent1))
send_message(send_message(go,agent1))
send_message(send_message(go,agent1))
send_message(send_message(go,agent1))
send_message(send_message(go,agent1))
send_message(send_message(go,agent1))
send_message(send_message(go,agent1))
send_message(send_message(go,agent1))
send_message(send_message(go,agent1))
send_message(send_message(go,agent1))
send_message(send_message(go,agent1))
send_message(send_message(go,agent1))
send_message(send_message(go,agent1))
send_message(send_message(go,agent1))
send_message(send_message(go,agent1))
send_message(send_message(go,agent1))
send_message(send_message(go,agent1))
send_message(send_message(go,agent1))
send_message(send_message(go,agent1))
send_message(send_message(go,agent1))
send_message(send_message(go,agent1))
send_message(send_message(go,agent1))
send_message(send_message(go,agent1))
send_message(send_message(go,agent1))
send_message(send_message(go,agent1))
send_message(send_message(go,agent1))
send_message(send_message(go,agent1))
send_message(send_message(go,agent1))
send_message(send_message(go,agent1))
send_message(send_message(go,agent1))
send_message(send_message(go,agent1))
send_message(send_message(go,agent1))
send_message(send_message(go,agent1))
send_message(send_message(go,agent1))
send_message(send_message(go,agent1))
send_message(send_message(go,agent1))
send_message(send_message(go,agent1))
send_message(send_message(go,agent1))
send_message(send_message(go,agent1))
send_message(send_message(go,agent1))
send_message(send_message(go,agent1))
send_message(send_message(go,agent1))
send_message(send_message(go,agent1))
send_message(send_message(go,agent1))
send_message(send_message(go,agent1))
send_message(send_message(go,agent1))
send_message(send_message(go,agent1))
send_message(send_message(go,agent1))
send_message(send_message(go,agent1))
send_message(send_message(go,agent1))
send_message(send_message(go,agent1))
send_message(send_message(go,agent1))
send_message(send_message(go,agent1))
send_message(send_message(go,agent1))
send_message(send_message(go,agent1))
send_message(send_message(go,agent1))
send_message(send_message(go,agent1))
send_message(send_message(go,agent1))
send_message(send_message(go,agent1))
send_message(send_message(go,agent1))
send_message(send_message(go,agent1))
send_message(send_message(go,agent1))
send_message(send_message(go,agent1))
send_message(send_message(go,agent1))
send_message(send_message(go,agent1))
send_message(send_message(go,agent1))
send_message(send_message(go,agent1))
send_message(send_message(go,agent1))
send_message(send_message(go,agent1))
send_message(send_message(go,agent1))
send_message(send_message(go,agent1))
send_message(send_message(go,agent1))
send_message(send_message(go,agent1))
send_message(send_message(go,agent1))
send_message(send_message(go,agent1))
send_message(send_message(go,agent1))
send_message(send_message(go,agent1))
send_message(send_message(go,agent1))
send_message(send_message(go,agent1))
send_message(send_message(go,agent1))
send_message(send_message(go,agent1))
send_message(send_message(go,agent1))
send_message(send_message(go,agent1))
send_message(send_message(go,agent1))
send_message(send_message(go,agent1))
send_message(send_message(go,agent1))
send_message(send_message(go,agent1))
send_message(send_message(go,agent1))
send_message(send_message(go,agent1))
send_message(send_message(go,agent1))
send_message(send_message(go,agent1))
send_message(send_message(go,agent1))
send_message(send_message(go,agent1))
send_message(send_message(go,agent1))
send_message(send_message(go,agent1))
send_message(send_message(go,agent1))
send_message(send_message(go,agent1))
send_message(send_message(go,agent1))
send_message(send_message(go,agent1))
send_message(send_message(go,agent1))
send_message(send_message(go,agent1))
send_message(send_message(go,agent1))
send_message(send_message(go,agent1))
send_message(send_message(go,agent1))
send_message(send_message(go,agent1))
send_message(send_message(go,agent1))
send_message(send_message(go,agent1))
send_message(send_message(go,agent1))
send_message(send_message(go,agent1))
send_message(send_message(go,agent1))
send_message(send_message(go,agent1))
send_message(send_message(go,agent1))
send_message(send_message(go,agent1))
send_message(send_message(go,agent1))
send_message(send_message(go,agent1))
send_message(send_message(go,agent1))
send_message(send_message(go,agent1))
send_message(send_message(go,agent1))
send_message(send_message(go,agent1))
send_message(send_message(go,agent1))
send_message(send_message(go,agent1))
send_message(send_message(go,agent1))
send_message(send_message(go,agent1))
send_message(send_message(go,agent1))
send_message(send_message(go,agent1))
send_message(send_message(go,agent1))
send_message(send_message(go,agent1))
send_message(send_message(go,agent1))
send_message(send_message(go,agent1))
send_message(send_message(go,agent1))
send_message(send_message(go,agent1))
send_message(send_message(go,agent1))
send_message(send_message(go,agent1))
send_message(send_message(go,agent1))
send_message(send_message(go,agent1))
send_message(send_message(go,agent1))
send_message(send_message(go,agent1))
send_message(send_message(go,agent1))
send_message(send_message(go,agent1))
send_message(send_message(go,agent1))
send_message(send_message(go,agent1))
send_message(send_message(go,agent1))
send_message(send_message(go,agent1))
send_message(send_message(go,agent1))
send_message(send_message(go,agent1))
send_message(send_message(go,agent1))
send_message(send_message(go,agent1))
send_message(send_message(go,agent1))
send_message(send_message(go,agent1))
send_message(send_message(go,agent1))
send_message(send_message(go,agent1))
send_message(send_message(go,agent1))
send_message(send_message(go,agent1))
send_message(send_message(go,agent1))
send_message(send_message(go,agent1))
send_message(send_message(go,agent1))
send_message(send_message(go,agent1))
send_message(send_message(go,agent1))
send_message(send_message(go,agent1))
send_message(send_message(go,agent1))
send_message(send_message(go,agent1))
send_message(send_message(go,agent1))
send_message(send_message(go,agent1))
send_message(send_message(go,agent1))
send_message(send_message(go,agent1))
send_message(send_message(go,agent1))
send_message(send_message(go,agent1))
send_message(send_message(go,agent1))
send_message(send_message(go,agent1))
send_message(send_message(go,agent1))
send_message(send_message(go,agent1))
send_message(send_message(go,agent1))
send_message(send_message(go,agent1))
send_message(send_message(go,agent1))
send_message(send_message(go,agent1))
send_message(send_message(go,agent1))
send_message(send_message(go,agent1))
send_message(send_message(go,agent1))
send_message(send_message(go,agent1))
send_message(send_message(go,agent1))
send_message(send_message(go,agent1))
send_message(send_message(go,agent1))
send_message(send_message(go,agent1))
send_message(send_message(go,agent1))
send_message(send_message(go,agent1))
send_message(send_message(go,agent1))
send_message(send_message(go,agent1))
send_message(send_message(go,agent1))
send_message(send_message(go,agent1))
send_message(send_message(go,agent1))
send_message(send_message(go,agent1))
send_message(send_message(go,agent1))
send_message(send_message(go,agent1))
send_message(send_message(go,agent1))
send_message(send_message(go,agent1))
send_message(send_message(go,agent1))
send_message(send_message(go,agent1))
send_message(send_message(go,agent1))
send_message(send_message(go,agent1))
send_message(send_message(go,agent1))
send_message(send_message(go,agent1))
send_message(send_message(go,agent1))
send_message(send_message(go,agent1))
send_message(send_message(go,agent1))
send_message(send_message(go,agent1))
send_message(send_message(go,agent1))
send_message(send_message(go,agent1))
send_message(send_message(go,agent1))
send_message(send_message(go,agent1))
send_message(send_message(go,agent1))
send_message(send_message(go,agent1))
send_message(send_message(go,agent1))
send_message(send_message(go,agent1))
send_message(send_message(go,agent1))
send_message(send_message(go,agent1))
send_message(send_message(go,agent1))
send_message(send_message(go,agent1))
send_message(send_message(go,agent1))
send_message(send_message(go,agent1))
send_message(send_message(go,agent1))
send_message(send_message(go,agent1))
send_message(send_message(go,agent1))
send_message(send_message(go,agent1))
send_message(send_message(go,agent1))
send_message(send_message(go,agent1))
send_message(send_message(go,agent1))
send_message(send_message(go,agent1))
send_message(send_message(go,agent1))
send_message(send_message(go,agent1))
send_message(send_message(go,agent1))
send_message(send_message(go,agent1))
send_message(send_message(go,agent1))
send_message(send_message(go,agent1))
send_message(send_message(go,agent1))
send_message(send_message(go,agent1))
send_message(send_message(go,agent1))
send_message(send_message(go,agent1))
send_message(send_message(go,agent1))
send_message(send_message(go,agent1))
send_message(send_message(go,agent1))
send_message(send_message(go,agent1))
send_message(send_message(go,agent1))
send_message(send_message(go,agent1))
send_message(send_message(go,agent1))
send_message(send_message(go,agent1))
send_message(send_message(go,agent1))
send_message(send_message(go,agent1))
send_message(send_message(go,agent1))
send_message(send_message(go,agent1))
send_message(send_message(go,agent1))
send_message(send_message(go,agent1))
send_message(send_message(go,agent1))
send_message(send_message(go,agent1))
send_message(send_message(go,agent1))
send_message(send_message(go,agent1))
send_message(send_message(go,agent1))
send_message(send_message(go,agent1))
send_message(send_message(go,agent1))
send_message(send_message(go,agent1))
send_message(send_message(go,agent1))
send_message(send_message(go,agent1))
send_message(send_message(go,agent1))
send_message(send_message(go,agent1))
send_message(send_message(go,agent1))
send_message(send_message(go,agent1))
send_message(send_message(go,agent1))
send_message(send_message(go,agent1))
send_message(send_message(go,agent1))
send_message(send_message(go,agent1))
send_message(send_message(go,agent1))
send_message(send_message(go,agent1))
send_message(send_message(go,agent1))
send_message(send_message(go,agent1))
send_message(send_message(go,agent1))
send_message(send_message(go,agent1))
send_message(send_message(go,agent1))
send_message(send_message(go,agent1))
send_message(send_message(go,agent1))
send_message(send_message(go,agent1))
send_message(send_message(go,agent1))
send_message(send_message(go,agent1))
send_message(send_message(go,agent1))
send_message(send_message(go,agent1))
send_message(send_message(go,agent1))
send_message(send_message(go,agent1))
send_message(send_message(go,agent1))
send_message(send_message(go,agent1))
send_message(send_message(go,agent1))
send_message(send_message(go,agent1))
send_message(send_message(go,agent1))
send_message(send_message(go,agent1))
send_message(send_message(go,agent1))
send_message(send_message(go,agent1))
send_message(send_message(go,agent1))
send_message(send_message(go,agent1))
send_message(send_message(go,agent1))
send_message(send_message(go,agent1))
send_message(send_message(go,agent1))
send_message(send_message(go,agent1))
send_message(send_message(go,agent1))
send_message(send_message(go,agent1))
send_message(send_message(go,agent1))
send_message(send_message(go,agent1))
send_message(send_message(go,agent1))
send_message(send_message(go,agent1))
send_message(send_message(go,agent1))
send_message(send_message(go,agent1))
send_message(send_message(go,agent1))
send_message(send_message(go,agent1))
send_message(send_message(go,agent1))
send_message(send_message(go,agent1))
send_message(send_message(go,agent1))
send_message(send_message(go,agent1))
send_message(send_message(go,agent1))
send_message(send_message(go,agent1))
send_message(send_message(go,agent1))
send_message(send_message(go,agent1))
send_message(send_message(go,agent1))
send_message(send_message(go,agent1))
send_message(send_message(go,agent1))
send_message(send_message(go,agent1))
send_message(send_message(go,agent1))
send_message(send_message(go,agent1))
send_message(send_message(go,agent1))
send_message(send_message(go,agent1))
send_message(send_message(go,agent1))
send_message(send_message(go,agent1))
send_message(send_message(go,agent1))
send_message(send_message(go,agent1))
send_message(send_message(go,agent1))
send_message(send_message(go,agent1))
send_message(send_message(go,agent1))
send_message(send_message(go,agent1))
send_message(send_message(go,agent1))
send_message(send_message(go,agent1))
send_message(send_message(go,agent1))
send_message(send_message(go,agent1))
send_message(send_message(go,agent1))
send_message(send_message(go,agent1))
send_message(send_message(go,agent1))
send_message(send_message(go,agent1))
send_message(send_message(go,agent1))
send_message(send_message(go,agent1))
send_message(send_message(go,agent1))
send_message(send_message(go,agent1))
send_message(send_message(go,agent1))
send_message(send_message(go,agent1))
send_message(send_message(go,agent1))
send_message(send_message(go,agent1))
send_message(send_message(go,agent1))
send_message(send_message(go,agent1))
send_message(send_message(go,agent1))
send_message(send_message(go,agent1))
send_message(send_message(go,agent1))
send_message(send_message(go,agent1))
send_message(send_message(go,agent1))
send_message(send_message(go,agent1))
send_message(send_message(go,agent1))
send_message(send_message(go,agent1))
send_message(send_message(go,agent1))
send_message(send_message(go,agent1))
send_message(send_message(go,agent1))
send_message(send_message(go,agent1))
send_message(send_message(go,agent1))
send_message(send_message(go,agent1))
send_message(send_message(go,agent1))
send_message(send_message(go,agent1))
send_message(send_message(go,agent1))
send_message(send_message(go,agent1))
send_message(send_message(go,agent1))
send_message(send_message(go,agent1))
send_message(send_message(go,agent1))
send_message(send_message(go,agent1))
send_message(send_message(go,agent1))
send_message(send_message(go,agent1))
send_message(send_message(go,agent1))
send_message(send_message(go,agent1))
send_message(send_message(go,agent1))
send_message(send_message(go,agent1))
send_message(send_message(go,agent1))
send_message(send_message(go,agent1))
send_message(send_message(go,agent1))
send_message(send_message(go,agent1))
send_message(send_message(go,agent1))
send_message(send_message(go,agent1))
send_message(send_message(go,agent1))
send_message(send_message(go,agent1))
send_message(send_message(go,agent1))
send_message(send_message(go,agent1))
send_message(send_message(go,agent1))
send_message(send_message(go,agent1))
send_message(send_message(go,agent1))
send_message(send_message(go,agent1))
send_message(send_message(go,agent1))
send_message(send_message(go,agent1))
send_message(send_message(go,agent1))
send_message(send_message(go,agent1))
send_message(send_message(go,agent1))
send_message(send_message(go,agent1))
send_message(send_message(go,agent1))
send_message(send_message(go,agent1))
send_message(send_message(go,agent1))
send_message(send_message(go,agent1))
send_message(send_message(go,agent1))
send_message(send_message(go,agent1))
send_message(send_message(go,agent1))
send_message(send_message(go,agent1))
send_message(send_message(go,agent1))
send_message(send_message(go,agent1))
send_message(send_message(go,agent1))
send_message(send_message(go,agent1))
send_message(send_message(go,agent1))
send_message(send_message(go,agent1))
send_message(send_message(go,agent1))
send_message(send_message(go,agent1))
send_message(send_message(go,agent1))
send_message(send_message(go,agent1))
send_message(send_message(go,agent1))
send_message(send_message(go,agent1))
send_message(send_message(go,agent1))
send_message(send_message(go,agent1))
send_message(send_message(go,agent1))
send_message(send_message(go,agent1))
send_message(send_message(go,agent1))
send_message(send_message(go,agent1))
send_message(send_message(go,agent1))
send_message(send_message(go,agent1))
send_message(send_message(go,agent1))
send_message(send_message(go,agent1))
send_message(send_message(go,agent1))
send_message(send_message(go,agent1))
send_message(send_message(go,agent1))
send_message(send_message(go,agent1))
send_message(send_message(go,agent1))
send_message(send_message(go,agent1))
send_message(send_message(go,agent1))
send_message(send_message(go,agent1))
send_message(send_message(go,agent1))
send_message(send_message(go,agent1))
send_message(send_message(go,agent1))
send_message(send_message(go,agent1))
send_message(send_message(go,agent1))
send_message(send_message(go,agent1))
send_message(send_message(go,agent1))
send_message(send_message(go,agent1))
send_message(send_message(go,agent1))
send_message(send_message(go,agent1))
send_message(send_message(go,agent1))
send_message(send_message(go,agent1))
send_message(send_message(go,agent1))
send_message(send_message(go,agent1))
send_message(send_message(go,agent1))
send_message(send_message(go,agent1))
send_message(send_message(go,agent1))
send_message(send_message(go,agent1))
send_message(send_message(go,agent1))
send_message(send_message(go,agent1))
send_message(send_message(go,agent1))
send_message(send_message(go,agent1))
send_message(send_message(go,agent1))
send_message(send_message(go,agent1))
send_message(send_message(go,agent1))
send_message(send_message(go,agent1))
send_message(send_message(go,agent1))
send_message(send_message(go,agent1))
send_message(send_message(go,agent1))
send_message(send_message(go,agent1))
send_message(send_message(go,agent1))
send_message(send_message(go,agent1))
send_message(send_message(go,agent1))
send_message(send_message(go,agent1))
send_message(send_message(go,agent1))
send_message(send_message(go,agent1))
send_message(send_message(go,agent1))
send_message(send_message(go,agent1))
send_message(send_message(go,agent1))
send_message(send_message(go,agent1))
send_message(send_message(go,agent1))
send_message(send_message(go,agent1))
send_message(send_message(go,agent1))
send_message(send_message(go,agent1))
send_message(send_message(go,agent1))
send_message(send_message(go,agent1))
send_message(send_message(go,agent1))
send_message(send_message(go,agent1))
send_message(send_message(go,agent1))
send_message(send_message(go,agent1))
send_message(send_message(go,agent1))
send_message(send_message(go,agent1))
send_message(send_message(go,agent1))
send_message(send_message(go,agent1))
send_message(send_message(go,agent1))
send_message(send_message(go,agent1))
send_message(send_message(go,agent1))
send_message(send_message(go,agent1))
send_message(send_message(go,agent1))
send_message(send_message(go,agent1))
send_message(send_message(go,agent1))
send_message(send_message(go,agent1))
send_message(send_message(go,agent1))
send_message(send_message(go,agent1))
send_message(send_message(go,agent1))
send_message(send_message(go,agent1))
send_message(send_message(go,agent1))
send_message(send_message(go,agent1))
send_message(send_message(go,agent1))
send_message(send_message(go,agent1))
send_message(send_message(go,agent1))
send_message(send_message(go,agent1))
send_message(send_message(go,agent1))
send_message(send_message(go,agent1))
send_message(send_message(go,agent1))
send_message(send_message(go,agent1))
send_message(send_message(go,agent1))
send_message(send_message(go,agent1))
send_message(send_message(go,agent1))
send_message(send_message(go,agent1))
send_message(send_message(go,agent1))
send_message(send_message(go,agent1))
send_message(send_message(go,agent1))
send_message(send_message(go,agent1))
send_message(send_message(go,agent1))
send_message(send_message(go,agent1))
send_message(send_message(go,agent1))
send_message(send_message(go,agent1))
send_message(send_message(go,agent1))
send_message(send_message(go,agent1))
send_message(send_message(go,agent1))
send_message(send_message(go,agent1))
send_message(send_message(go,agent1))
send_message(send_message(go,agent1))
send_message(send_message(go,agent1))
send_message(send_message(go,agent1))
send_message(send_message(go,agent1))
send_message(send_message(go,agent1))
send_message(send_message(go,agent1))
send_message(send_message(go,agent1))
send_message(send_message(go,agent1))
send_message(send_message(go,agent1))
send_message(send_message(go,agent1))
send_message(send_message(go,agent1))
send_message(send_message(go,agent1))
send_message(send_message(go,agent1))
send_message(send_message(go,agent1))
send_message(send_message(go,agent1))
send_message(send_message(go,agent1))
send_message(send_message(go,agent1))
send_message(send_message(go,agent1))
send_message(send_message(go,agent1))
send_message(send_message(go,agent1))
send_message(send_message(go,agent1))
send_message(send_message(go,agent1))
send_message(send_message(go,agent1))
send_message(send_message(go,agent1))
send_message(send_message(go,agent1))
send_message(send_message(go,agent1))
send_message(send_message(go,agent1))
send_message(send_message(go,agent1))
send_message(send_message(go,agent1))
send_message(send_message(go,agent1))
send_message(send_message(go,agent1))
send_message(send_message(go,agent1))
send_message(send_message(go,agent1))
send_message(send_message(go,agent1))
send_message(send_message(go,agent1))
send_message(send_message(go,agent1))
send_message(send_message(go,agent1))
send_message(send_message(go,agent1))
send_message(send_message(go,agent1))
send_message(send_message(go,agent1))
send_message(send_message(go,agent1))
send_message(send_message(go,agent1))
send_message(send_message(go,agent1))
send_message(send_message(go,agent1))
send_message(send_message(go,agent1))
send_message(send_message(go,agent1))
send_message(send_message(go,agent1))
send_message(send_message(go,agent1))
send_message(send_message(go,agent1))
send_message(send_message(go,agent1))
send_message(send_message(go,agent1))
send_message(send_message(go,agent1))
send_message(send_message(go,agent1))
send_message(send_message(go,agent1))
send_message(send_message(go,agent1))
send_message(send_message(go,agent1))
send_message(send_message(go,agent1))
send_message(send_message(go,agent1))
send_message(send_message(go,agent1))
send_message(send_message(go,agent1))
send_message(send_message(go,agent1))
send_message(send_message(go,agent1))
send_message(send_message(go,agent1))
send_message(send_message(go,agent1))
send_message(send_message(go,agent1))
send_message(send_message(go,agent1))
send_message(send_message(go,agent1))
send_message(send_message(go,agent1))
send_message(send_message(go,agent1))
send_message(send_message(go,agent1))
send_message(send_message(go,agent1))
send_message(send_message(go,agent1))
send_message(send_message(go,agent1))
send_message(send_message(go,agent1))
send_message(send_message(go,agent1))
send_message(send_message(go,agent1))
send_message(send_message(go,agent1))
send_message(send_message(go,agent1))
send_message(send_message(go,agent1))
send_message(send_message(go,agent1))
send_message(send_message(go,agent1))
send_message(send_message(go,agent1))
send_message(send_message(go,agent1))
send_message(send_message(go,agent1))
send_message(send_message(go,agent1))
send_message(send_message(go,agent1))
send_message(send_message(go,agent1))
send_message(send_message(go,agent1))
send_message(send_message(go,agent1))
send_message(send_message(go,agent1))
send_message(send_message(go,agent1))
send_message(send_message(go,agent1))
send_message(send_message(go,agent1))
send_message(send_message(go,agent1))
send_message(send_message(go,agent1))
send_message(send_message(go,agent1))
send_message(send_message(go,agent1))
send_message(send_message(go,agent1))
send_message(send_message(go,agent1))
send_message(send_message(go,agent1))
send_message(send_message(go,agent1))
send_message(send_message(go,agent1))
send_message(send_message(go,agent1))
send_message(send_message(go,agent1))
send_message(send_message(go,agent1))
send_message(send_message(go,agent1))
send_message(send_message(go,agent1))
send_message(send_message(go,agent1))
send_message(send_message(go,agent1))
send_message(send_message(go,agent1))
send_message(send_message(go,agent1))
send_message(send_message(go,agent1))
send_message(send_message(go,agent1))
send_message(send_message(go,agent1))
send_message(send_message(go,agent1))
send_message(send_message(go,agent1))
send_message(send_message(go,agent1))
send_message(send_message(go,agent1))
send_message(send_message(go,agent1))
send_message(send_message(go,agent1))
send_message(send_message(go,agent1))
send_message(send_message(go,agent1))
send_message(send_message(go,agent1))
send_message(send_message(go,agent1))
send_message(send_message(go,agent1))
send_message(send_message(go,agent1))
send_message(send_message(go,agent1))
send_message(send_message(go,agent1))
send_message(send_message(go,agent1))
send_message(send_message(go,agent1))
send_message(send_message(go,agent1))
send_message(send_message(go,agent1))
send_message(send_message(go,agent1))
send_message(send_message(go,agent1))
send_message(send_message(go,agent1))
send_message(send_message(go,agent1))
send_message(send_message(go,agent1))
send_message(send_message(go,agent1))
send_message(send_message(go,agent1))
send_message(send_message(go,agent1))
send_message(send_message(go,agent1))
send_message(send_message(go,agent1))
send_message(send_message(go,agent1))
send_message(send_message(go,agent1))
send_message(send_message(go,agent1))
send_message(send_message(go,agent1))
send_message(send_message(go,agent1))
send_message(send_message(go,agent1))
send_message(send_message(go,agent1))
send_message(send_message(go,agent1))
send_message(send_message(go,agent1))
send_message(send_message(go,agent1))
send_message(send_message(go,agent1))
send_message(send_message(go,agent1))
send_message(send_message(go,agent1))
send_message(send_message(go,agent1))
send_message(send_message(go,agent1))
send_message(send_message(go,agent1))
send_message(send_message(go,agent1))
send_message(send_message(go,agent1))
send_message(send_message(go,agent1))
send_message(send_message(go,agent1))
send_message(send_message(go,agent1))
send_message(send_message(go,agent1))
send_message(send_message(go,agent1))
send_message(send_message(go,agent1))
send_message(send_message(go,agent1))
send_message(send_message(go,agent1))
send_message(send_message(go,agent1))
send_message(send_message(go,agent1))
send_message(send_message(go,agent1))
send_message(send_message(go,agent1))
send_message(send_message(go,agent1))
send_message(send_message(go,agent1))
send_message(send_message(go,agent1))
send_message(send_message(go,agent1))
send_message(send_message(go,agent1))
send_message(send_message(go,agent1))
send_message(send_message(go,agent1))
send_message(send_message(go,agent1))
send_message(send_message(go,agent1))
send_message(send_message(go,agent1))
send_message(send_message(go,agent1))
send_message(send_message(go,agent1))
send_message(send_message(go,agent1))
send_message(send_message(go,agent1))
send_message(send_message(go,agent1))
send_message(send_message(go,agent1))
send_message(send_message(go,agent1))
send_message(send_message(go,agent1))
send_message(send_message(go,agent1))
send_message(send_message(go,agent1))
send_message(send_message(go,agent1))
send_message(send_message(go,agent1))
send_message(send_message(go,agent1))
send_message(send_message(go,agent1))
send_message(send_message(go,agent1))
send_message(send_message(go,agent1))
send_message(send_message(go,agent1))
send_message(send_message(go,agent1))
send_message(send_message(go,agent1))
send_message(send_message(go,agent1))
send_message(send_message(go,agent1))
send_message(send_message(go,agent1))
send_message(send_message(go,agent1))
send_message(send_message(go,agent1))
send_message(send_message(go,agent1))
send_message(send_message(go,agent1))
send_message(send_message(go,agent1))
send_message(send_message(go,agent1))
send_message(send_message(go,agent1))
send_message(send_message(go,agent1))
send_message(send_message(go,agent1))
send_message(send_message(go,agent1))
send_message(send_message(go,agent1))
send_message(send_message(go,agent1))
send_message(send_message(go,agent1))
send_message(send_message(go,agent1))
send_message(send_message(go,agent1))
send_message(send_message(go,agent1))
send_message(send_message(go,agent1))
send_message(send_message(go,agent1))
send_message(send_message(go,agent1))
send_message(send_message(go,agent1))
send_message(send_message(go,agent1))
send_message(send_message(go,agent1))
send_message(send_message(go,agent1))
send_message(send_message(go,agent1))
send_message(send_message(go,agent1))
send_message(send_message(go,agent1))
send_message(send_message(go,agent1))
send_message(send_message(go,agent1))
send_message(send_message(go,agent1))
send_message(send_message(go,agent1))
send_message(send_message(go,agent1))
